<?xml version="1.0" encoding="UTF-8" standalone="no"?>
<svg width="26px" height="26px" viewBox="0 0 26 26" version="1.1" xmlns="http://www.w3.org/2000/svg" xmlns:xlink="http://www.w3.org/1999/xlink">
    <!-- Generator: sketchtool 41 (35326) - http://www.bohemiancoding.com/sketch -->
    <title>5EE41979-C805-4AF1-89CE-3AFC599D9945</title>
    <desc>Created with sketchtool.</desc>
    <defs></defs>
    <g id="Symbols" stroke="none" stroke-width="1" fill="none" fill-rule="evenodd" stroke-linecap="square">
        <g id="icoClose" stroke-width="2" stroke="#ECC376">
            <g id="Path-2">
                <path d="M25.5,0.5 L0.5,25.5"></path>
                <path d="M25.5,0.5 L0.5,25.5" transform="translate(13.000000, 13.000000) scale(-1, 1) translate(-13.000000, -13.000000) "></path>
            </g>
        </g>
    </g>
</svg>